^C:\USERS\ALEX\SOURCE\REPOS\ALGORITM\ALGORITM.CPP
C:\USERS\ALEX\SOURCE\REPOS\ALGORITM\DEBUG\VC142.PDB
C:\USERS\ALEX\SOURCE\REPOS\ALGORITM\DEBUG\VC142.IDB
C:\USERS\ALEX\SOURCE\REPOS\ALGORITM\DEBUG\ALGORITM.OBJ
